%YAML 1.1
%TAG !u! tag:unity3d.com,2011:
--- !u!1045 &1
EditorBuildSettings:
  m_ObjectHideFlags: 0
  serializedVersion: 2
  m_Scenes:
  - enabled: 1
    path: Assets/Scenes/Start.unity
    guid: c22336b8f92fa41a59d8f507ddfef174
  - enabled: 1
    path: Assets/Scenes/sampleScene.unity
    guid: 8a934c648da894734bb250ee9e846429
  m_configObjects: {}
